<?xml version="1.0" encoding="UTF-8"?>
<svg width="100px" height="78px" viewBox="0 0 100 78" version="1.1" xmlns="http://www.w3.org/2000/svg" xmlns:xlink="http://www.w3.org/1999/xlink">
    <!-- Generator: Sketch 52.2 (67145) - http://www.bohemiancoding.com/sketch -->
    <title>Group 3</title>
    <desc>Created with Sketch.</desc>
    <g id="Page-1" stroke="none" stroke-width="1" fill="none" fill-rule="evenodd">
        <g id="press-page-v1" transform="translate(-747.000000, -620.000000)">
            <g id="Group-3" transform="translate(748.000000, 621.000000)">
                <g id="Group-46">
                    <g id="Group-45">
                        <path d="M89,76 L89,8 L92,8 C95.313,8 98,10.687 98,14 L98,67 C98,71.971 93.971,76 89,76" id="Fill-1" fill="#CCCCCC"></path>
                        <path d="M89,76 L89,8 L92,8 C95.313,8 98,10.687 98,14 L98,67 C98,71.971 93.971,76 89,76 Z" id="Stroke-3" stroke="#333333" stroke-width="2" stroke-linecap="round" stroke-linejoin="round"></path>
                        <path d="M89,76 L6,76 C2.687,76 0,73.313 0,70 L0,6 C0,2.687 2.687,0 6,0 L83,0 C86.313,0 89,2.687 89,6 L89,76 Z" id="Fill-5" fill="#FFFFFF"></path>
                        <path d="M89,76 L6,76 C2.687,76 0,73.313 0,70 L0,6 C0,2.687 2.687,0 6,0 L83,0 C86.313,0 89,2.687 89,6 L89,76 Z" id="Stroke-7" stroke="#333333" stroke-width="2" stroke-linecap="round" stroke-linejoin="round"></path>
                        <polygon id="Fill-9" fill="#E24329" points="31.4521 66.2627 31.4521 66.2627 38.5631 44.6267 24.3421 44.6267"></polygon>
                        <polygon id="Fill-11" fill="#FC6D26" points="31.4473 66.2627 24.3373 44.6267 14.3803 44.6267"></polygon>
                        <path d="M14.377,44.6338 L12.213,51.2078 C12.018,51.8048 12.229,52.4638 12.746,52.8358 L31.444,66.2698 L14.377,44.6338 Z" id="Fill-13" fill="#FCA326"></path>
                        <path d="M14.3799,44.6338 L24.3439,44.6338 L20.0559,31.6038 C19.8359,30.9368 18.8799,30.9368 18.6519,31.6038 L14.3799,44.6338 Z" id="Fill-15" fill="#E24329"></path>
                        <polygon id="Fill-17" fill="#FC6D26" points="31.4521 66.2627 38.5631 44.6267 48.5271 44.6267"></polygon>
                        <path d="M48.5205,44.6338 L50.6835,51.2078 C50.8795,51.8048 50.6675,52.4638 50.1505,52.8358 L31.4535,66.2618 L48.5205,44.6338 Z" id="Fill-19" fill="#FCA326"></path>
                        <path d="M48.5254,44.6338 L38.5614,44.6338 L42.8414,31.6038 C43.0614,30.9368 44.0174,30.9368 44.2454,31.6038 L48.5254,44.6338 Z" id="Fill-21" fill="#E24329"></path>
                        <polygon id="Stroke-23" stroke="#333333" stroke-width="2" stroke-linecap="round" stroke-linejoin="round" points="31.4521 66.2627 31.4521 66.2627 38.5631 44.6267 24.3421 44.6267"></polygon>
                        <polygon id="Stroke-25" stroke="#333333" stroke-width="2" stroke-linecap="round" stroke-linejoin="round" points="31.4473 66.2627 24.3373 44.6267 14.3803 44.6267"></polygon>
                        <path d="M14.377,44.6338 L12.213,51.2078 C12.018,51.8048 12.229,52.4638 12.746,52.8358 L31.444,66.2698 L14.377,44.6338 Z" id="Stroke-27" stroke="#333333" stroke-width="2" stroke-linecap="round" stroke-linejoin="round"></path>
                        <path d="M14.3799,44.6338 L24.3439,44.6338 L20.0559,31.6038 C19.8359,30.9368 18.8799,30.9368 18.6519,31.6038 L14.3799,44.6338 Z" id="Stroke-29" stroke="#333333" stroke-width="2" stroke-linecap="round" stroke-linejoin="round"></path>
                        <polygon id="Stroke-31" stroke="#333333" stroke-width="2" stroke-linecap="round" stroke-linejoin="round" points="31.4521 66.2627 38.5631 44.6267 48.5271 44.6267"></polygon>
                        <path d="M48.5205,44.6338 L50.6835,51.2078 C50.8795,51.8048 50.6675,52.4638 50.1505,52.8358 L31.4535,66.2618 L48.5205,44.6338 Z" id="Stroke-33" stroke="#333333" stroke-width="2" stroke-linecap="round" stroke-linejoin="round"></path>
                        <path d="M48.5254,44.6338 L38.5614,44.6338 L42.8414,31.6038 C43.0614,30.9368 44.0174,30.9368 44.2454,31.6038 L48.5254,44.6338 Z" id="Stroke-35" stroke="#333333" stroke-width="2" stroke-linecap="round" stroke-linejoin="round"></path>
                        <path d="M62,51 L78,51" id="Stroke-37" stroke="#CCCCCC" stroke-width="2" stroke-linecap="round" stroke-linejoin="round"></path>
                        <path d="M62,36 L78,36" id="Stroke-39" stroke="#CCCCCC" stroke-width="2" stroke-linecap="round" stroke-linejoin="round"></path>
                        <path d="M62,44 L78,44" id="Stroke-41" stroke="#CCCCCC" stroke-width="2" stroke-linecap="round" stroke-linejoin="round"></path>
                        <path d="M62,59 L68,59" id="Stroke-43" stroke="#CCCCCC" stroke-width="2" stroke-linecap="round" stroke-linejoin="round"></path>
                    </g>
                </g>
                <g id="Group-2" transform="translate(8.000000, 8.000000)" fill="#251B3F">
                    <path d="M-9.23705556e-14,1.38789962 C-9.23705556e-14,0.642371073 0.393361848,0.248646513 1.13820359,0.248646513 L2.75230111,0.248646513 C3.39408041,0.248646513 3.80756202,0.476332741 4.11798118,1.01513535 L7.76047904,7.16718435 C8.34025663,8.14039913 9.00215569,9.6939261 9.00215569,9.6939261 L9.04321642,9.6939261 C9.04321642,9.6939261 8.87774166,8.09888955 8.87774166,7.16718435 L8.87774166,1.38789962 C8.87774166,0.642371073 9.27110351,0.248646513 10.0163559,0.248646513 L11.3615056,0.248646513 C12.1063473,0.248646513 12.4992985,0.642371073 12.4992985,1.38789962 L12.4992985,13.9192729 C12.4992985,14.6652124 12.1063473,15.058937 11.3615056,15.058937 L9.74699743,15.058937 C9.12656972,15.058937 8.7126775,14.8308398 8.40184773,14.2920371 L4.73923011,8.16094843 C4.15986313,7.18732266 3.49755346,5.63420668 3.49755346,5.63420668 L3.45608212,5.63420668 C3.45608212,5.63420668 3.62155689,7.22924323 3.62155689,8.16094843 L3.62155689,13.9192729 C3.62155689,14.6652124 3.22819504,15.058937 2.48335329,15.058937 L1.13820359,15.058937 C0.393361848,15.058937 -9.23705556e-14,14.6652124 -9.23705556e-14,13.9192729 L-9.23705556e-14,1.38789962 Z" id="Fill-41"></path>
                    <path d="M16.2719179,1.38789962 C16.2719179,0.642371073 16.6652797,0.248646513 17.4101215,0.248646513 L24.4052284,0.248646513 C25.1496595,0.248646513 25.5430214,0.642371073 25.5430214,1.38789962 L25.5430214,2.21644734 C25.5430214,2.96197589 25.1496595,3.35570045 24.4052284,3.35570045 L19.8934748,3.35570045 L19.8934748,6.04848054 L23.2666142,6.04848054 C24.0118666,6.04848054 24.4052284,6.44179411 24.4052284,7.18732266 L24.4052284,8.01628137 C24.4052284,8.76180992 24.0118666,9.15512349 23.2666142,9.15512349 L19.8934748,9.15512349 L19.8934748,11.951883 L24.6947066,11.951883 C25.4395483,11.951883 25.8329102,12.3451966 25.8329102,13.0911361 L25.8329102,13.9192729 C25.8329102,14.6652124 25.4395483,15.058937 24.6947066,15.058937 L17.4101215,15.058937 C16.6652797,15.058937 16.2719179,14.6652124 16.2719179,13.9192729 L16.2719179,1.38789962 Z" id="Fill-43"></path>
                    <path d="M27.7657211,1.51193519 C27.579716,0.724897056 27.9521369,0.248564315 28.7589803,0.248564315 L30.2285441,0.248564315 C30.9113841,0.248564315 31.3252763,0.579819008 31.4698101,1.26369966 L33.1257896,9.50766726 C33.3117947,10.4192341 33.3117947,11.0607832 33.3117947,11.0607832 L33.353266,11.0607832 C33.353266,11.0607832 33.3737964,10.4192341 33.6016835,9.50766726 L35.6296732,1.24315037 C35.7955586,0.579819008 36.2090402,0.248564315 36.8922908,0.248564315 L37.782077,0.248564315 C38.464917,0.248564315 38.8783986,0.579819008 39.0237536,1.24315037 L41.010272,9.50766726 C41.2381591,10.4192341 41.2582789,11.0607832 41.2582789,11.0607832 L41.3001608,11.0607832 C41.3001608,11.0607832 41.3001608,10.4192341 41.486166,9.50766726 L43.2866792,1.24315037 C43.431213,0.579819008 43.8455158,0.248564315 44.5488862,0.248564315 L45.9564482,0.248564315 C46.7632917,0.248564315 47.1357126,0.724897056 46.9497074,1.51193519 L43.7625731,14.085229 C43.5970984,14.7481494 43.1832062,15.0588548 42.5003661,15.0588548 L40.4929068,15.0588548 C39.8100667,15.0588548 39.3961745,14.7271891 39.2306997,14.0646797 L37.6161916,7.58137601 C37.3887151,6.62829955 37.3267134,5.84126141 37.3267134,5.84126141 L37.2852421,5.84126141 C37.2852421,5.84126141 37.2232404,6.62829955 36.9957639,7.58137601 L35.3812558,14.0646797 C35.215781,14.7271891 34.8018888,15.0588548 34.1190488,15.0588548 L32.070118,15.0588548 C31.387278,15.0588548 30.9733858,14.7271891 30.807911,14.0646797 L27.7657211,1.51193519 Z" id="Fill-45"></path>
                    <path d="M49.004633,12.2625884 L49.6460017,11.3300613 C50.0598939,10.7300217 50.5357879,10.6881012 51.2190385,11.0608654 C51.6949324,11.3099229 52.6261899,11.9724323 53.9089273,11.9724323 C54.9851292,11.9724323 55.4819641,11.5170599 55.4819641,10.9367477 C55.4819641,8.84482909 48.9426313,9.17608378 48.9426313,4.53605216 C48.9426313,1.80217348 51.2190385,8.8817842e-15 54.2197571,8.8817842e-15 C55.9373276,8.8817842e-15 57.5099538,0.60086149 58.2137348,1.09774353 C58.8140428,1.53297767 58.8760445,2.05040901 58.5656253,2.6512705 L58.0687904,3.62489627 C57.6548982,4.4324837 57.0960616,4.30836594 56.5166946,4.01820984 C55.8338546,3.68695515 55.1510145,3.33474017 54.1782857,3.33474017 C53.0400821,3.33474017 52.5641882,3.79052361 52.5641882,4.3708358 C52.5641882,6.52481328 59.103521,6.00697095 59.103521,10.6881012 C59.103521,13.1741553 57.2414166,15.3071725 53.9089273,15.3071725 C51.8398768,15.3071725 49.9978922,14.4580755 49.2115791,13.8366647 C48.7767459,13.4848607 48.4663268,13.0286663 49.004633,12.2625884" id="Fill-47"></path>
                </g>
            </g>
        </g>
    </g>
</svg>